R II: Programming
…
# Iterative Programming: Implicit Loops

```r
diamonds %>%
  map_at(
    vars(carat, depth, price),
    function(x)
      x > median(x)
  ) %>% 
  as_tibble()
```

```
# A tibble: 53,940 x 10
   carat cut       color clarity depth table price     x     y     z
   <lgl> <ord>     <ord> <ord>   <lgl> <dbl> <lgl> <dbl> <dbl> <dbl>
 1 FALSE Ideal     E     SI2     FALSE    55 FALSE  3.95  3.98  2.43
 2 FALSE Premium   E     SI1     FALSE    61 FALSE  3.89  3.84  2.31
 3 FALSE Good      E     VS1     FALSE    65 FALSE  4.05  4.07  2.31
 4 FALSE Premium   I     VS2     TRUE     58 FALSE  4.2   4.23  2.63
 5 FALSE Good      J     SI2     TRUE     58 FALSE  4.34  4.35  2.75
 6 FALSE Very Good J     VVS2    TRUE     57 FALSE  3.94  3.96  2.48
 7 FALSE Very Good I     VVS1    TRUE     57 FALSE  3.95  3.98  2.47
 8 FALSE Very Good H     SI1     TRUE     55 FALSE  4.07  4.11  2.53
 9 FALSE Fair      E     VS2     TRUE     61 FALSE  3.87  3.78  2.49
10 FALSE Very Good H     VS1     FALSE    61 FALSE  4     4.05  2.39
# … with 53,930 more rows
```
…
